{
	"label": "Action Support",
	"entries": {
		"Aura: Bane": {
			"name": "Аура: Проклятие",
			"description": "<p>Аура для @Compendium[pf2e.spells-srd.7ZinJNzxq0XF0oMx].</p>"
		},
		"Aura: Triple Time": {
			"name": "Аура: Трехдольный размер",
			"description": "<p>Аура для @UUID[Compendium.pf2e.spells-srd.Item.IAjvwqgiDr3qGYxY].</p>"
		},
		"Effect: Aberrant Whispers Immunity": {
			"name": "Эффект: Aberrant Whispers Immunity",
			"description": "<p>Granted when someone uses @UUID[Compendium.pf2e.spells-srd.Item.qhJfRnkCRrMI4G1O].</p>"
		},
		"Effect: Actor's hunted prey": {
			"name": "Эффект: Actor's hunted prey"
		},
		"Effect: Additional bludgeoning damage bloodline": {
			"name": "Эффект: Additional bludgeoning damage bloodline"
		},
		"Effect: Additional damage bloodline": {
			"name": "Эффект: Additional damage bloodline"
		},
		"Effect: Allegro": {
			"name": "Эффект: Аллегро",
			"description": "<p>Если кто-то использует @UUID[Compendium.pf2e.spells-srd.Item.IQchIYUwbsVTa9Mc] на вас, он получает состояние `ускорен` и может использовать дополнительное действие, чтобы совершить \"Удар\", \"Перемещение\" или \"Шаг\".</p>"
		},
		"Effect: Aromatic Lure (Critical Failure)": {
			"name": "Эффект: Ароматический приворот (Critical Failure)",
			"description": "<p>You are @UUID[Compendium.pf2e.conditionitems.Item.e1XGnhKNSQIm5IXg]{Stupefied 4} and moves to the selected location via the most direct route possible for 1 round, bypassing any obvious hazards and enemies in the way. If the creature reaches the destination, it must remain in that location for [[/r 1d4 #rounds]]{1d4 rounds} but can otherwise act normally.</p>"
		},
		"Effect: Aromatic Lure (Failure)": {
			"name": "Эффект: Ароматический приворот (Failure)",
			"description": "<p>You are @UUID[Compendium.pf2e.conditionitems.Item.e1XGnhKNSQIm5IXg]{Stupefied 2} and moves toward the selected location via the most direct route possible for 1 round, bypassing any obvious hazards and enemies in the way.</p>"
		},
		"Effect: Aromatic Lure (Success)": {
			"name": "Эффект: Ароматический приворот (Success)",
			"description": "<p>You are distracted by the tantalizing scents, becoming @UUID[Compendium.pf2e.conditionitems.Item.e1XGnhKNSQIm5IXg]{Stupefied 1} for 1 round.</p>"
		},
		"Effect: Battle Medicine Immunity 1 Hour": {
			"name": "Эффект: Battle Medicine Immunity 1 Hour",
			"description": "<p>Granted when someone uses @UUID[Compendium.pf2e.feats-srd.Item.wYerMk6F1RZb0Fwt] with @UUID[Compendium.pf2e.equipment-srd.Item.8kv4fmpE1geu4bFx] on you, rendering you temporarily immune to Battle Medicine from that person for the duration.</p>"
		},
		"Effect: Bend Time": {
			"name": "Эффект: Bend Time",
			"description": "<p>You are @UUID[Compendium.pf2e.conditionitems.Item.nlCjDvLMf2EkV2dl] this turn. You can use your extra action to Stride.</p>"
		},
		"Effect: Blinded for 1 round": {
			"name": "Эффект: Blinded for 1 round",
			"description": "<p>You are @UUID[Compendium.pf2e.conditionitems.Item.XgEqL1kFApUbl5Z2] for 1 round.</p>"
		},
		"Effect: Clumsy for 1 round": {
			"name": "Эффект: Clumsy for 1 round",
			"description": "<p>You are @UUID[Compendium.pf2e.conditionitems.Item.i3OJZU2nk64Df3xm] for 1 round.</p>"
		},
		"Effect: Clumsy until start of your next turn": {
			"name": "Эффект: Clumsy until start of your next turn",
			"description": "<p>You are @UUID[Compendium.pf2e.conditionitems.Item.i3OJZU2nk64Df3xm] until the start of your next turn.</p>"
		},
		"Effect: Concealed for 1 round": {
			"name": "Эффект: Concealed for 1 round",
			"description": "<p>You are @UUID[Compendium.pf2e.conditionitems.Item.DmAIPqOBomZ7H95W] for 1 round, but can't use the concealment to @UUID[Compendium.pf2e.actionspf2e.Item.XMcnh4cSI32tljXa].</p>"
		},
		"Effect: Concealed until start of your next turn": {
			"name": "Эффект: Concealed until start of your next turn",
			"description": "<p>You are @UUID[Compendium.pf2e.conditionitems.Item.DmAIPqOBomZ7H95W] until the start of your next turn.</p>"
		},
		"Effect: Critically Successful Feint on": {
			"name": "Эффект: Critically Successful Feint on"
		},
		"Effect: Dazzled for 1 round": {
			"name": "Эффект: Dazzled for 1 round",
			"description": "<p>You are @UUID[Compendium.pf2e.conditionitems.Item.TkIyaNPgTZFBCCuh] for 1 round.</p>"
		},
		"Effect: Deafened for 1 hour": {
			"name": "Эффект: Deafened for 1 hour",
			"description": "<p>You are @UUID[Compendium.pf2e.conditionitems.Item.9PR9y0bi4JPKnHPR] for 1 hour.</p>"
		},
		"Effect: Deafened for 1 minute": {
			"name": "Эффект: Deafened for 1 minute",
			"description": "<p>You are @UUID[Compendium.pf2e.conditionitems.Item.9PR9y0bi4JPKnHPR] for 1 minute.</p>"
		},
		"Effect: Deafened for 1 round": {
			"name": "Эффект: Deafened for 1 round",
			"description": "<p>You are @UUID[Compendium.pf2e.conditionitems.Item.9PR9y0bi4JPKnHPR] for 1 round.</p>"
		},
		"Effect: Demoralize Immunity 10 minutes": {
			"name": "Эффект: Demoralize Immunity 10 minutes",
			"description": "<p>Granted when someone uses @UUID[Compendium.pf2e.actionspf2e.Item.2u915NdUyQan6uKF] on you, rendering you temporarily immune to Demoralize for the duration.</p>"
		},
		"Effect: Enfeebled 1 until start of your next turn": {
			"name": "Эффект: Enfeebled 1 until start of your next turn",
			"description": "<p>You are @UUID[Compendium.pf2e.conditionitems.Item.MIRkyAjyBeXivMa7] until the start of attacker next turn.</p>"
		},
		"Effect: Enfeebled 2 until start of your next turn": {
			"name": "Эффект: Enfeebled 2 until start of your next turn",
			"description": "<p>You are @UUID[Compendium.pf2e.conditionitems.Item.MIRkyAjyBeXivMa7] until the start of attacker next turn.</p>"
		},
		"Effect: Enfeebled for 1 round": {
			"name": "Эффект: Enfeebled for 1 round",
			"description": "<p>You are @UUID[Compendium.pf2e.conditionitems.Item.MIRkyAjyBeXivMa7] for 1 round.</p>"
		},
		"Effect: Fascinated for 1 round": {
			"name": "Эффект: Fascinated for 1 round",
			"description": "<p>You are @UUID[Compendium.pf2e.conditionitems.Item.AdPVz7rbaVSRxHFg] for 1 round.</p>"
		},
		"Effect: Feint (Critical Success) from": {
			"name": "Эффект: Финт (Критический успех) от",
			"description": "<p>Актер одурачен, но лишь на мгновение. Актер застигнут врасплох для следующей атаки ближнего боя, до конца вашего следующего хода.</p>"
		},
		"Effect: Feint (Success) from": {
			"name": "Эффект: Финт (Успех) от",
			"description": "<p>Актер одурачен, но лишь на мгновение. Актер застигнут врасплох для следующей атаки ближнего боя.</p>"
		},
		"Effect: Grabbed until end of attacker next turn": {
			"name": "Эффект: Grabbed until end of attacker next turn",
			"description": "<p>Target is @UUID[Compendium.pf2e.conditionitems.Item.kWc1fhmv9LBiTuei] until the end of your next turn unless you move or your target @UUID[Compendium.pf2e.actionspf2e.Item.SkZAQRkLLkmBQNB9]{Escapes}.</p>"
		},
		"Effect: Haste": {
			"name": "Эффект: Ускорение",
			"description": "<p>Granted when someone uses @UUID[Compendium.pf2e.spells-srd.Item.o6YCGx4lycsYpww4] on you, It gains the Quickened condition and can use the extra action each round only for Strike and Stride actions.</p>"
		},
		"Effect: Immobilized for 1 round": {
			"name": "Эффект: Обездвижен на 1 раунд",
			"description": "<p>Вы @UUID[Compendium.pf2e.conditionitems.Item.eIcWbB5o3pP6OIMe] на 1 раунд.</p>"
		},
		"Effect: Jinx Clumsy 1": {
			"name": "Эффект: Jinx Clumsy 1",
			"description": "<p>Предоставляется @UUID[Compendium.pf2e.actionspf2e.Item.hFRHPBj6wjAayNtW].</p>"
		},
		"Effect: Jinx Clumsy 2": {
			"name": "Эффект: Jinx Clumsy 2",
			"description": "<p>Предоставляется @UUID[Compendium.pf2e.actionspf2e.Item.hFRHPBj6wjAayNtW].</p>"
		},
		"Effect: Jinx Immunity": {
			"name": "Эффект: Jinx Immunity",
			"description": "<p>Granted when someone uses @UUID[Compendium.pf2e.actionspf2e.Item.hFRHPBj6wjAayNtW] on you.</p>"
		},
		"Effect: Ki Rush": {
			"name": "Эффект: Рывок ки"
		},
		"Effect: Off-Guard Tumble Behind": {
			"name": "Эффект: Off-Guard Tumble Behind"
		},
		"Effect: Off-Guard until start of your next turn": {
			"name": "Эффект: Off-Guard until start of your next turn",
			"description": "<p>You are @UUID[Compendium.pf2e.conditionitems.Item.AJh5ex99aV6VTggg] until the start of your next turn.</p>"
		},
		"Effect: Paralyzed until end of your next turn": {
			"name": "Эффект: Paralyzed until end of your next turn",
			"description": "<p>You are @UUID[Compendium.pf2e.conditionitems.Item.6uEgoh53GbXuHpTF] until the end of attacker next turn.</p>"
		},
		"Effect: Pistol Twirl": {
			"name": "Эффект: Pistol Twirl"
		},
		"Effect: Psychopomp Fortitude saving throws for 1 round": {
			"name": "Эффект: Psychopomp Fortitude saving throws for 1 round"
		},
		"Effect: Restrained until end of attacker next turn": {
			"name": "Эффект: Restrained until end of attacker next turn",
			"description": "<p>Target is @UUID[Compendium.pf2e.conditionitems.Item.VcDeM8A5oI6VqhbM] until the end of your next turn unless you move or your target @UUID[Compendium.pf2e.actionspf2e.Item.SkZAQRkLLkmBQNB9]{Escapes}.</p>"
		},
		"Effect: Scouting (Scout Dedication)": {
			"name": "Эффект: Scouting (Scout Dedication)"
		},
		"Effect: Skunk Bomb (Failure)": {
			"name": "Эффект: Skunk Bomb (Failure)",
			"description": "<p>You are @UUID[Compendium.pf2e.conditionitems.Item.xYTAsEpcJE1Ccni3] while @UUID[Compendium.pf2e.conditionitems.Item.fesd1n5eVhpCSS18].</p>"
		},
		"Effect: Slowed 1 for 1 round": {
			"name": "Эффект: Slowed 1 for 1 round",
			"description": "<p>You are @UUID[Compendium.pf2e.conditionitems.Item.xYTAsEpcJE1Ccni3] for 1 round.</p>"
		},
		"Effect: Slowed while Sickened": {
			"name": "Эффект: Slowed while Sickened",
			"description": "<p>You are @UUID[Compendium.pf2e.conditionitems.Item.xYTAsEpcJE1Ccni3] while @UUID[Compendium.pf2e.conditionitems.Item.fesd1n5eVhpCSS18].</p>"
		},
		"Effect: Stupefied for 1 round": {
			"name": "Эффект: Stupefied for 1 round",
			"description": "<p>You are @UUID[Compendium.pf2e.conditionitems.Item.e1XGnhKNSQIm5IXg] for 1 round.</p>"
		},
		"Effect: Successful Feint on": {
			"name": "Эффект: Successful Feint on"
		},
		"Effect: Temp HP 1 round": {
			"name": "Эффект: Temp HP 1 round"
		},
		"Effect: Treat Wounds Immunity 10 minutes": {
			"name": "Эффект: Иммунитет к лечению ран 10 минут",
			"description": "<p>Granted when someone uses @UUID[Compendium.pf2e.actionspf2e.Item.1kGNdIIhuglAjIp9] on you, rendering you temporarily immune to Treat Wounds for the duration.</p>"
		},
		"Feat Effect: Intimidating Strike": {
			"name": "Эффект способности: Запугивающий удар"
		},
		"Feat Effect: Reach Spell": {
			"name": "Эффект способности: Досягаемое заклинание"
		},
		"Immunity to bane": {
			"name": "Иммунитет к проклятию"
		},
		"Inspire Aura": {
			"name": "Inspire Aura"
		},
		"Spell Effect: Aberrant Form": {
			"name": "Эффект заклинания: Форма аберрации"
		},
		"Spell Effect: Adapt Self": {
			"name": "Эффект заклинания: Адаптировать себя"
		},
		"Spell Effect: Aerial Form": {
			"name": "Эффект заклинания: Воздушная форма"
		},
		"Spell Effect: Angel Form": {
			"name": "Эффект заклинания: Форма ангела"
		},
		"Spell Effect: Animal Feature": {
			"name": "Эффект заклинания: Животная черта"
		},
		"Spell Effect: Animal Form": {
			"name": "Эффект заклинания: Форма животного"
		},
		"Spell Effect: See the Unseen (8 hours)": {
			"name": "Эффект заклинания: Увидеть невидимое (8 hours)",
			"description": "<p>Предоставляется @UUID[Compendium.pf2e.spells-srd.Item.jwK43yKsHTkJQvQ9]</p>\n<p>Вы можете видеть невидимых существ, как если бы они не были невидимыми, хотя их черты размыты, что делает их @UUID[Compendium.pf2e.conditionitems.Item.DmAIPqOBomZ7H95W] и их трудно идентифицировать. Более тонкие подсказки также дают вам бонус состояния +2 к проверкам, которые вы совершаете, чтобы не поверить в иллюзии.</p>"
		},
		"Spell Effect: Spectral Hand": {
			"name": "Эффект заклинания: Призрачный носильщик"
		}
	}
}