{
    "pf2e-hero-actions": {
        "migration": {
            "system-change": "<h3>PF2e Hero Actions</h3><p>Система pf2e внесла критические изменения в записи и таблицу <strong>Колоды Героизма</strong> в версии <strong>5.0.1</strong>.</p>\n<p>Если у вас нет таблицы в мире или таблица полностью заполнена пользовательскими записями, вы можете полностью пропустить это.</p>\n<p>Если вы используете таблицу по умолчанию, без каких-либо пользовательстких записей, вам придется удалить ее и заменить новой (для этого вы всегда можете использовать @UUID[Compendium.pf2e-hero-actions.macros.Macro.SUXi4nhdJb8vZk58]).</p>\n<p>Если, с другой стороны, ваша таблица содержит и то и другое, вам нужно будет вручную обновить все записи таблицы, указывающие на старые записи журнала по умолчанию, преобразовать их в тип <strong>Текст</strong> вместо типа <strong>Сборник</strong> и использовать синтаксис <strong>@UUID</strong>, указывающий непосредственно на страницу нового журнала @UUID[Compendium.pf2e.journals.JournalEntry.BSp4LUSaOmUyjBko].</p>\n<p>Если вы в конечном итоге внесли какие-либо изменения, упомянутые выше, вам нужно будет очистить все действия героизма персонажа, лучший способ сделать это - использовать @UUID[Compendium.pf2e-hero-actions.macros.Macro.9N64covsl3iGzxSh].</p>"
        },
        "trade-request": {
            "title": "Запрос на обмен",
            "header": "Персонаж {sender} хочет обменяться с {receiver}",
            "give": "Предлагает: {give}",
            "want": "Хочет: {want}",
            "accept": "Хотели бы вы принять сделку?"
        },
        "trade-success": {
            "header": "Обменяно с {name}",
            "offer": "Предложено: {offer}",
            "receive": "Получено: {receive}"
        },
        "actions-discard": {
            "header": "Сбрасывает ({nb}) действий геройства"
        },
        "actions-draw": {
            "header": "Достает ({nb}) действий геройства"
        },
        "actions-use": {
            "header": "Тратит очко геройства на использование"
        },
        "trade-rejected": "Ваш обмен действий геройства был отклонен {name}.",
        "trade-error": "Произошла ошибка во время обмена действий геройства.",
        "no-points": "Вам нужно сбросить ({nb}) действий геройства, прежде чем вы сможете приступить к обмену.",
        "no-action": "У вас нет никаких действий геройства для обмена.",
        "templates": {
            "trade": {
                "title": "Обмен действий геройства",
                "select": "Выберите персонажа для обмена",
                "no-target": "Цель не найдена",
                "no-select": "Пожалуйста выберите одно действие геройства для передачи и одно для получения.",
                "no-user": "У цели нет игрока или он не подключен к сети.",
                "error": "Произошла ошибка во время обмена. Скорее всего, действие геройства отсутствовало.",
                "send": "Отправить",
                "cancel": "Отменить"
            },
            "createTable": {
                "choice": {
                    "title": "Параметры создания таблицы",
                    "create": "Создать",
                    "cancel": "Отменить",
                    "types": {
                        "group": "Тип таблицы:",
                        "default": "По умолчанию",
                        "custom": "Пользовательская"
                    },
                    "draw": {
                        "group": "Варианты сдачи карт:",
                        "random": "Случайные",
                        "unique": "Уникальные"
                    }
                },
                "default": {
                    "confirm": {
                        "title": "Таблица по умолчанию подтверждена?",
                        "content": "<p>Таблица по умолчанию уже существует в этом мире, хотите ли вы переопределить ее или создать новую?</p>"
                    }
                }
            },
            "removeActions": {
                "title": "Удалить действия геройства из персонажей",
                "remove": "Удалить",
                "cancel": "Отмена",
                "all": "Все",
                "noSelection": "Ни один персонаж не был выбран.",
                "removed": "Действия героя были удалены для выбранного персонажа(ей)."
            },
            "heroActions": {
                "action": {
                    "use": "Играть",
                    "discard": "Сбросить"
                },
                "discard": "Сбросить выбранное ({nb}) действие геройства",
                "draw": "Достать ({nb}) действие геройства",
                "error": "Вы должны сбросить ({nb}) действий геройства",
                "label": "Действия геройства",
                "tbd": "Предстоит определить",
                "trade": "Обменять"
            }
        },
        "table": {
            "name": "Колода действий геройства (не удалять)",
            "description": "Таблица действий геройства, используемая в сочетании с очками геройства.",
            "noFormula": "В таблице Колоды Геройства нет формулы, скажите своему Мастеру, что он ошибся.",
            "noFormulaCompendium": "Таблица Колоды Геройства не имеет формулы и является таблицей компендиума.",
            "drawError": "Во время розыгрыша произошла ошибка, скорее всего, таблица содержит несоответствующие результаты."
        },
        "settings": {
            "tableUUID": {
                "name": "UUID Таблицы",
                "hint": "Уникальный ID таблицы колоды. Чтобы получить UUID таблицы (в компендиуме или в разделе таблиц), просто откройте таблицы и щелкните правой кнопкой мышки на 📔 рядом с ее названием. Если оставить пустым, будет использоваться первая таблица Колоды Геройства, найденная в вашем мире, если нет, то вместо нее будет использоваться таблица из компендиума по умолчанию."
            },
            "trade": {
                "name": "Разрешить обмен",
                "hint": "При включении, игроки смогут обмениваться действиями геройства друг с другом."
            },
            "private": {
                "name": "Приватная раздача",
                "hint": "При включении, сообщения о раздаче действий героизма будут приватными, а не общедоступными."
            }
        },
        "use": {
            "noPoints": "Вам нужно по крайней мере 1 Очко Геройства, чтобы использовать действие геройства.",
            "noAction": "Не удалось найти это действие.",
            "noDetails": "Не удалось найти детали для этого действия геройства."
        }
    }
}
