{
	"label": "Снаряжение",
	"mapping": {
		"name": {
			"path": "name",
			"converter": "itemNameConverter"
		},
		"description": "system.description.value"
	},
	"entries": {
		"First Infusion": {
			"name": "Первая заварка",
			"description": "<p><strong>Активация:</strong> <span class=\"action-glyph\">2</span> @UUID[Compendium.pf2e.actionspf2e.Item.pvQ5rY2zrtPI614F] (@Trait[Ingested]{глотаемый})</p>\n<p>Эта заварка восстанавливает количество ОЗ, равное 1d8 × половину вашего уровня (минимум 1d8), и даёт бонус обстоятельства +4 к вашему следующему спасброску против болезни или яда, сделанному в течение 24 часов.</p>\n<p>@Damage[(max(1,floor(@actor.level/2))*(1d8))[healing]]{Уровневое исцеление}</p>\n<p>@UUID[Compendium.pf2e-specific-familiars.specific-familiars-effects.Item.6pI6nDLfhlGBUEiO]</p>"
		},
		"Second Infusion": {
			"name": "Вторая заварка",
			"description": "<p><strong>Активация:</strong> <span class=\"action-glyph\">2</span> @UUID[Compendium.pf2e.actionspf2e.Item.pvQ5rY2zrtPI614F] (@Trait[Ingested]{глотаемый})</p>\n<p>Эта заварка восстанавливает количество ОЗ, равное 1d4 × половину вашего уровня (минимум 1d4), и даёт бонус обстоятельства +2 к вашему следующему спасброску против болезни или яда, сделанному в течение 24 часов.</p>\n<p>@Damage[(max(1,floor(@actor.level/2))*(1d4))[healing]]{Уровневое исцеление}</p>\n<p>@UUID[Compendium.pf2e-specific-familiars.specific-familiars-effects.Item.a3bOhBcAh8HARlFT]</p>"
		},
		"Third Infusion": {
			"name": "Третья заварка",
			"description": "<p><strong>Активация:</strong> <span class=\"action-glyph\">2</span> @UUID[Compendium.pf2e.actionspf2e.Item.pvQ5rY2zrtPI614F] (@Trait[Ingested]{глотаемый})</p>\n<p>Эта заварка на 1 час даёт временные ОЗ, равные вашему уровню.</p>\n<p>@UUID[Compendium.pf2e-specific-familiars.specific-familiars-effects.Item.GGr2FcMoySQJAXPN]</p>"
		},
		"Sorcerous Sweets Candy": {
			"name": "Чародейские сладости [Конфета]",
			"description": "<p><strong>Активация:</strong> <span class=\"action-glyph\">1</span> @UUID[Compendium.pf2e.actionspf2e.Item.pvQ5rY2zrtPI614F] (@Trait[Ingested]{глотаемый})</p>\n<p>Любой, кто ест эту конфету действием @UUID[Compendium.pf2e.actionspf2e.Item.pvQ5rY2zrtPI614F]{Взаимодействовать}, на 1 час получает бонус предмета +1 к проверкам Выступления, Дипломатии и Обмана. Конфета сохраняет своё зачарование до ваших следующих ежедневных приготовлений.</p>\n<p>@UUID[Compendium.pf2e-specific-familiars.specific-familiars-effects.Item.n6bo0EkqKR3dVbIx]</p>"
		},
		"Sorcerous Sweets Candy (Level 17)": {
			"name": "Чародейские сладости [Конфета] [Уровень 17]",
			"description": "<p><strong>Активация:</strong> <span class=\"action-glyph\">1</span> @UUID[Compendium.pf2e.actionspf2e.Item.pvQ5rY2zrtPI614F] (@Trait[Ingested]{глотаемый})</p>\n<p>Любой, кто ест эту конфету действием @UUID[Compendium.pf2e.actionspf2e.Item.pvQ5rY2zrtPI614F]{Взаимодействовать}, на 1 час получает бонус предмета +1 к проверкам Выступления, Дипломатии и Обмана. Конфета сохраняет своё зачарование до ваших следующих ежедневных приготовлений.</p>\n<p>@UUID[Compendium.pf2e-specific-familiars.specific-familiars-effects.Item.Wfm1mtjJlIju5Kzq]</p>"
		},
		"Sorcerous Sweets Candy (Level 9)": {
			"name": "Чародейские сладости [Конфета] [Уровень 9]",
			"description": "<p><strong>Активация:</strong> <span class=\"action-glyph\">1</span> @UUID[Compendium.pf2e.actionspf2e.Item.pvQ5rY2zrtPI614F] (@Trait[Ingested]{глотаемый})</p>\n<p>Любой, кто ест эту конфету действием @UUID[Compendium.pf2e.actionspf2e.Item.pvQ5rY2zrtPI614F]{Взаимодействовать}, на 1 час получает бонус предмета +1 к проверкам Выступления, Дипломатии и Обмана. Конфета сохраняет своё зачарование до ваших следующих ежедневных приготовлений.</p>\n<p>@UUID[Compendium.pf2e-specific-familiars.specific-familiars-effects.Item.ttXGdsjYZZwDePaG]</p>"
		}
	}
}