{
	"label": "Эффекты",
	"mapping": {
		"name": {
			"path": "name",
			"converter": "itemNameConverter"
		},
		"description": "system.description.value",
		"rules": {
			"path": "system.rules",
			"converter": "carefulMerge"
		}
	},
	"entries": {
		"Effect: Become as Spirit": {
			"name": "Эффект: Стать духом",
			"description": "<p>Предоставляется @UUID[Compendium.pf2e-playtest-data.impossible-playtest-class-feats.Item.yU5UsMnUXpQ9U8xt]</p>\n<p>Вы получаете сопротивление ко всему урону (кроме силы, <em>призрачного касания</em>, духовного урона или урона жизненностью), равное половине вашего уровня.</p>"
		},
		"Effect: Ectoplasmic Aura": {
			"name": "Эффект: Эктоплазменная аура",
			"description": "<p>Предоставляется @UUID[Compendium.pf2e-playtest-data.impossible-playtest-class-feats.Item.eefWtZieXWoMQETi]</p>\n<p>Вы получаете бонус обстоятельства +1 к КБ.</p>"
		},
		"Effect: Elemental Revision": {
			"name": "Эффект: Стихийное переписывание",
			"description": "<p>Предоставляется @UUID[Compendium.pf2e-playtest-data.impossible-playtest-class-feats.Item.QW43JtWz3pVZMsKj]</p>\n<p>Вы выбираете <em>грохочущую</em>, <em>морозную</em>, <em>огненную</em>, <em>разъедающую</em> или <em>шоковую</em> руну на оружии и меняете её на любую другую руну из этого списка. Если источник 15 уровня или больше добавьте отличные руны в этот список.</p>",
			"rules": {
				"1": {
					"prompt": "Выберите перезаписываемую руну"
				},
				"2": {
					"prompt": "Выберите руну, на которую она будет заменена"
				}
			}
		},
		"Effect: Esvadir, Rune of Whetstones": {
			"name": "Эффект: Эсвадир, Руна точильных камней",
			"description": "<p>Предоставляется @UUID[Compendium.pf2e-playtest-data.impossible-playtest-runes.Item.Eu4ud1MsMIhy24CR]</p>\n<p>Оружие наносит дополнительные 2 урона кровотечением за каждую кость урона оружием.</p>"
		},
		"Effect: Feikris, Rune of Gravity": {
			"name": "Эффект: Фейкрис, Руна гравитации",
			"description": "<p>Предоставляется @UUID[Compendium.pf2e-playtest-data.impossible-playtest-runes.Item.WJ472N5rUoZfPMp3]</p>\n<p>Вы получаете бонус предмета +2 к проверкам Атлетики. Если источник руны 17-го уровня или выше, бонус увеличивается до +3.</p>"
		},
		"Effect: Ghostly Resonance": {
			"name": "Эффект: Призрачный резонанс",
			"description": "<p>Предоставляется @UUID[Compendium.pf2e-playtest-data.impossible-playtest-class-feats.Item.iSaeKHpXib4kO2CM]</p>\n<p>Выбранная вами атака получает преимущества руны призрачного касания.</p>"
		},
		"Effect: Holtrik, Rune of Dwarven Ramparts": {
			"name": "Эффект: Хольтрик, Руна дварфийских крепостных стен",
			"description": "<p>Предоставляется @UUID[Compendium.pf2e-playtest-data.impossible-playtest-runes.Item.azxAqh6vmhgK2dzR]</p>\n<p>Ваш щит увеличивает бонус обстоятельства к КБ на 1.</p>"
		},
		"Effect: Ichelsu, Rune of Observation": {
			"name": "Эффект: Ичелсу, Руна наблюдения",
			"description": "<p>Предоставляется @UUID[Compendium.pf2e-playtest-data.impossible-playtest-runes.Item.cO1zNpHbEZiSphNp]</p>\n<p>Вы получаете эффекты <em>увидеть невидимое</em> и вас не могут фланкировать.</p>"
		},
		"Effect: Inth-, Diacritic Rune of Corruption": {
			"name": "Эффект: Инф-, Диакритическая руна развращения",
			"description": "<p>Предоставляется @UUID[Compendium.pf2e-playtest-data.impossible-playtest-runes.Item.8AksFXlcywERvqKV]</p>\n<p>Любой урон, наносимый базовой руной, получает признак @Trait[Unholy]{нечестивый}. Если вы @Trait[Holy]{святое} существо, вы становитесь @Condition[Enfeebled]{ослаблены 1}.</p>",
			"rules": {
				"0": {
					"label": "Диакритическая руна развращения — Нанесение урона нарисованной руной"
				}
			}
		},
		"Effect: Kojastri, Rune of Insulation": {
			"name": "Эффект: Коястри, Руна изоляции",
			"description": "<p>Предоставляется @UUID[Compendium.pf2e-playtest-data.impossible-playtest-runes.Item.LiEb1gKaBfF08xOK]</p>\n<p>Вы получаете сопротивление 5 к урону огнём, холодом или электричеством на ваш выбор, и любое существо наносящее вам урон безоружной атакой или атакой не-длинным оружием ближнего боя, получает 2d6 урона выбранного типа.</p>",
			"rules": {
				"0": {
					"prompt": "Выберите доспех."
				},
				"4": {
					"text": "Любое существо наносящее вам урон безоружной атакой или атакой не-длинным оружием ближнего боя, получает @Damage[(1 + max(0,floor((@actor.level - 9) / 4)))d6[@actor.flags.pf2e.runeOfInsulation.energy]]"
				}
			}
		},
		"Effect: Marssyl, Rune of Impact": {
			"name": "Эффект: Марсиль, Руна сотрясения",
			"description": "<p>Предоставляется @UUID[Compendium.pf2e-playtest-data.impossible-playtest-runes.Item.KGQvlQDy4QT23tO5]</p>\n<p>Выбранное оружие наносит 1 дробящего урона брызгами за каждую кость урона оружия.</p>",
			"rules": {
				"2": {
					"label": "Руна сотрясения — Воззвание"
				},
				"4": {
					"text": "Цель должна совершить успешный @Check[fortitude]{Спасбросок Стойкости} против вашего КС класса, или будет отброшена на 10 футов по прямой назад, или на 20 футов при критическом провале."
				}
			}
		},
		"Effect: Oljinex, Rune of Cowards' Bane": {
			"name": "Эффект: Олджинекс, Руна погибели трусов",
			"description": "<p>Предоставляется @UUID[Compendium.pf2e-playtest-data.impossible-playtest-runes.Item.Q4INkfHzqn6tm4LM]</p>\n<p>Когда выбранный щит поднят, вы получаете бонус состояния +1 к КБ против физических атак дальнего боя.</p>",
			"rules": {
				"0": {
					"label": "Руна погибели трусов — Использование щита, носящего руну"
				}
			}
		},
		"Effect: Pluuna, Rune of Illumination": {
			"name": "Эффект: Плуна, Руна свечения",
			"description": "<p>Предоставляется @UUID[Compendium.pf2e-playtest-data.impossible-playtest-runes.Item.eHKXdrPV1Vkev8Wt]</p>\n<p>Вы излучаете свет в 20-футовой эманации и тусклый свет в радиусе 40 футов. Вы и существа в эманации получаете штраф предмета −1 к проверкам Скрытности.</p>"
		},
		"Effect: Pluuna, Rune of Illumination (Stealth Penalty)": {
			"name": "Эффект: Плуна, Руна свечения [Штраф Скрытности]",
			"description": "<p>Предоставляется @UUID[Compendium.pf2e-playtest-data.impossible-playtest-runes.Item.eHKXdrPV1Vkev8Wt]</p>\n<p>Вы получаете штраф предмета −1 к проверкам Скрытности.</p>"
		},
		"Effect: Reinforced Skeleton": {
			"name": "Эффект: Усиленный скелет",
			"description": "<p>Предоставляется @UUID[Compendium.pf2e-playtest-data.impossible-playtest-class-feats.Item.1w5HY9sssinfLo9l]</p>\n<p>Ваш бонус состояния к Скорости увеличивается до +20 футов.</p>"
		},
		"Effect: Remote Detonation": {
			"name": "Эффект: Дистанционная детонация",
			"description": "<p>Предоставляется @UUID[Compendium.pf2e-playtest-data.impossible-playtest-class-feats.Item.EArC1mxaneUs1Pzr]</p>\n<p>Вы получаете штраф обстоятельства −1 к спасброскам против @Trait[Rune]{рун}.</p>"
		},
		"Effect: Rovan, Seal of the Dead Vault Rune": {
			"name": "Эффект: Рован, Руна запечатывания Мёртвого Хранилища",
			"description": "<p>Предоставляется @UUID[Compendium.pf2e-playtest-data.impossible-playtest-runes.Item.yL4Yam21U0RwbaEN]</p>\n<p>Вы получаете штраф −20 футов к вашей наземной Скорости и штраф −40 футов ко всем другим Скоростям.</p>"
		},
		"Effect: Ur-, Diacritic Rune of Intensity": {
			"name": "Эффект: Ур-, Диакритическая руна интенсивности",
			"description": "<p>Предоставляется @UUID[Compendium.pf2e-playtest-data.impossible-playtest-runes.Item.mJV8HVSelLajRMtJ]</p>\n<p>Вы получаете бонус состояния к урону, равный модификатору Интеллекта источника руны.</p>"
		},
		"Effect: Zohk, Rune of Homecoming": {
			"name": "Эффект: Зок, Руна возвращения домой",
			"description": "<p>Предоставляется @UUID[Compendium.pf2e-playtest-data.impossible-playtest-runes.Item.dy2PWy8R42gxpnzt]</p>\n<p>Вы получаете бонус состояния +15 футов к своим Скоростям, но только если ваше движение закончится ближе к источнику руны, чем в начале вашего хода.</p>",
			"rules": {
				"0": {
					"label": "Руна возвращения домой — Применить бонус состояния к Скоростям"
				}
			}
		},
		"Spell Effect: Bind Heroic Spirit": {
			"name": "Эффект заклинания: Связать героический дух",
			"description": "<p>Предоставляется @UUID[Compendium.pf2e-playtest-data.impossible-playtest-spells.Item.rJ4dm9Vw7KJUKcoE]</p>\n<p>Вы получаете бонус состояния +3 к броскам атак и спасброскам.</p>"
		},
		"Spell Effect: Muscle Barrier": {
			"name": "Эффект заклинания: Мышечный барьер",
			"description": "<p>Предоставляется @UUID[Compendium.pf2e-playtest-data.impossible-playtest-spells.Item.OKHzvgfvdR3qqiqR]</p>\n<p>Вы получаете бонус состояния +1 к проверкам Атлетики и временные ОЗ.</p>"
		}
	}
}