{
	"label": "Руны",
	"mapping": {
		"name": {
			"path": "name",
			"converter": "itemNameConverter"
		},
		"description": "system.description.value"
	},
	"entries": {
		"Aiuen, The Elf-Gate Key Rune": {
			"name": "Ауйэн, Руна-ключ к вратам эльфов",
			"description": "<p><strong>Использование:</strong> нарисовано на существе</p>\n<hr />\n<p>Эта искусная круговая руна является ключом к сети эльфийских врат <em>ауйдар</em>, протянувшихся через звезды. Раз в ход, когда руноносец совершает действие \"Перемещения\", он может вместо этого телепортироваться на расстояние, равное его Скорости.</p>\n<p><strong>Воззвание:</strong> Вы телепортируете руноносца в пространство рядом с другой вашей руной, если она находится в том же плане реальности. Несогласная цель может совершить спасбросок @Check[will|against:runesmith]{Воли} чтобы сопротивляться телепортации.</p>\n<hr />\n<p><strong>Особенность:</strong> Если у вас есть возможность сотворять чары @UUID[Compendium.pf2e.spells-srd.Item.AUctDF2fqPZN2w4W], вы можете использовать воззвание к ауйэн, чтобы телепортировать руноносца в пространство рядом с любым из ваших <em>сигилов</em>, в том же плане реальности, в дополнение к любым из ваших рун.</p>"
		},
		"Atryl, Rune of Fire": {
			"name": "Атриль, Руна огня",
			"description": "<p><strong>Использование:</strong> нарисовано на существе или объекте</p>\n<hr />\n<p>Эту руну часто помещают на камень в очаге, чтобы огонь не погас ночью: её сила позволяет гореть даже камню. Сопротивление огня носителя руны, если таковое есть, снижается на 6. Иммунитеты не затрагиваются.</p>\n<p><strong>Воззвание:</strong> Руноносец получает @Damage[(2*(ceil(@actor.level / 2)))d6[fire]] с @Check[fortitude|basic|against:runesmith]{Простым спасброском Стойкости}; при критическом провале он также @UUID[Compendium.pf2e.conditionitems.Item.TkIyaNPgTZFBCCuh]{Ослеплён} на 1 раунд.</p>\n<hr />\n<p><strong>Уровень (+2):</strong> Снижение сопротивления руны увеличивается на 1, а урон от воззвания увеличивается на 2d6.</p>"
		},
		"En-, Diacritic Rune of Expansion": {
			"name": "Эн-, Диакритическая руна расширения",
			"description": "<p><strong>Использование:</strong> нарисовано на наносящей урон руне</p>\n<hr />\n<p>Этот знак окружает руну стрелками, направленными наружу, чтобы увеличить и направить силу наружу. Когда совершается воззвание к базовой руне, её урон наносится в @Template[burst|distance:15]{15-футовом взрыве}, сосредоточенном на руноносце. Если в этой области находятся существа, на них распространяются эффекты базовой руны (включая любые спасброски).</p>"
		},
		"Esvadir, Rune of Whetstones": {
			"name": "Эсвадир, Руна точильных камней",
			"description": "<p><strong>Использование:</strong> нарисовано на оружии или безоружном \"Ударе\", наносящем колющий или рубящий урон</p>\n<hr />\n<p>Эта зазубренная руна, нанесенная на клинок, гарантирует, что он никогда не затупится. При успешном \"Ударе\", оружие наносит дополнительные 2 урона кровотечением за каждую кость урона оружием.</p>\n<p>@UUID[Compendium.pf2e-playtest-data.impossible-playtest-effects.Item.Bq9YEJ6OvXHgE8j4]</p>\n<p><strong>Воззвание:</strong> Сущность остроты вырывается наружу из руны, нанося @Damage[(2*(ceil(@actor.level / 2)))d6[slashing]] существу рядом с руноносцем с @Check[fortitude|basic|against:runesmith]{Простым спасброском Стойкости}.</p>\n<hr />\n<p><strong>Уровень (+2):</strong> Урон от воззвания увеличивается на 2d6.</p>"
		},
		"Feikris, Rune of Gravity": {
			"name": "Фейкрис, Руна гравитации",
			"description": "<p><strong>Использование:</strong> нарисовано на существе или доспехе</p>\n<hr />\n<p>Линии этой руны странным образом пересекаются, из-за чего она кажется больше, чем есть на самом деле. Руноносец получает бонус предмета +2 к проверкам Атлетики и способность навыка @UUID[Compendium.pf2e.feats-srd.Item.KxaYlC50zzHysJj8].</p>\n<p>@UUID[Compendium.pf2e-playtest-data.impossible-playtest-effects.Item.s3cil1tttjpA2N7f]</p>\n<p><strong>Воззвание:</strong> Все существа в 15-футовой эманации от руноносца должны преуспеть в спасброске @Check[fortitude]{Стойкости} или будут притянуты на 5 футов к руноносцу (или на 10 футов при критическом провале).</p>\n<hr />\n<p><strong>Уровень (17-й):</strong> Бонус предмета увеличивается до +3.</p>"
		},
		"Holtrik, Rune of Dwarven Ramparts": {
			"name": "Хольтрик, Руна дварфийских крепостных стен",
			"description": "<p><strong>Использование:</strong> нарисовано на щите</p>\n<hr />\n<p>Благодаря сходству дварфийских слов \"стена\" и \"щит\" эта угловатая руна, когда-то использовавшаяся для укрепления туннелей, может с равным успехом применяться и в пылу сражения. Щит с этой руной увеличивает бонус обстоятельства к КБ на 1.</p>\n<p>@UUID[Compendium.pf2e-playtest-data.impossible-playtest-effects.Item.gBwMb0QqrBJVzyYc]</p>\n<p><strong>Воззвание:</strong> Вы призываете щиту занять его законное место. Вы @UUID[Compendium.pf2e.actionspf2e.Item.xjGwis0uaC2305pm]{Поднимаете щит} руноносца, как если бы руноносец использовал \"Поднять щит\", и щит сохраняет увеличенный бонус к КБ до начала следующего хода существа.</p>"
		},
		"Ichelsu, Rune of Observation": {
			"name": "Ичелсу, Руна наблюдения",
			"description": "<p><strong>Использование:</strong> нарисовано на существе</p>\n<hr />\n<p>Эта руна, представляющая собой кольцо из пунктирных кругов, позволяет существу, отмеченному ею, видеть всё. На руноносца действует @UUID[Compendium.pf2e.spells-srd.Item.jwK43yKsHTkJQvQ9], и он получает круговое зрение, что не позволяет фланкировать его.</p>\n<p>@UUID[Compendium.pf2e-playtest-data.impossible-playtest-effects.Item.uSvACOQ3Ib7d311G]</p>\n<p><strong>Воззвание:</strong> Глаза руны вылетают наружу и прикрепляются ко всем существам в 20-футовой эманации. Каждое из этих существ, которое было @UUID[Compendium.pf2e.conditionitems.Item.zJxUflt9np0q4yML]{Невидимым}, вместо этого становится @UUID[Compendium.pf2e.conditionitems.Item.DmAIPqOBomZ7H95W]{Скрытым}, а те, что были @Condition[Concealed]{скрытыми} по любой другой причине, больше не являются @Condition[Concealed]{скрытыми}. Этот эффект длится 2 раунда.</p>"
		},
		"Inth-, Diacritic Rune of Corruption": {
			"name": "Инф-, Диакритическая руна развращения",
			"description": "<p><strong>Использование:</strong> нарисовано на руне</p>\n<hr />\n<p>Этот набор угловатых акцентов вокруг базовой руны передает сущность бесовского развращения. Базовая руна приобретает признак @Trait[Unholy]{нечестивый}, как и любой наносимый ею урон. Если её применить к @Trait[Holy]{святому} существу, оно становится @UUID[Compendium.pf2e.conditionitems.Item.MIRkyAjyBeXivMa7]{Ослаблено 1}, пока является руноносцем.</p>\n<p>@UUID[Compendium.pf2e-playtest-data.impossible-playtest-effects.Item.OwbpgxdQFpxfre4g]</p>\n<p><strong>Воззвание:</strong> (@Trait[Unholy]{нечестивый}) Когда происходит воззвание к базовой руне, она сгорает в нечестивом чёрном пламени, который задерживается на руноносце. В дополнение к обычному эффекту базовой руны, руноносец получает 1d4 продолжительного урона огнём.</p>\n<hr />\n<p><strong>Уровень (+2):</strong> Урон увеличивается на 1d4.</p>"
		},
		"Jurroz, Rune of Dragon Fury": {
			"name": "Юрроз, Руна драконьей ярости",
			"description": "<p><strong>Использование:</strong> выгравировано на существе или доспехе</p>\n<hr />\n<p>Эта угловатая руна направляет ярость драконов. Всякий раз, когда существо наносит \"Удар\" по руноносцу или \"Крадёт\" у него, драконья ярость полностью концентрируется на нём, заставляя его стать @UUID[Compendium.pf2e.conditionitems.Item.AJh5ex99aV6VTggg]{Застигнутым врасплох} на 1 раунд.</p>\n<p><strong>Воззвание:</strong> В качестве свободного действия руноносец может \"Пролететь\" вплоть до 60 футов в сторону существа, которое нанесло ему урон в последнюю минуту. Если он заканчивает движение рядом с существом, оно становится @UUID[Compendium.pf2e.conditionitems.Item.AJh5ex99aV6VTggg]{Застигнуто врасплох} до конца следующего хода руноносца. Если руноносец не обладает Скоростью полёта и заканчивает свое движение в воздухе, он безопасно опускается на землю в конце своего следующего хода.</p>"
		},
		"Kojastri, Rune of Insulation": {
			"name": "Коястри, Руна изоляции",
			"description": "<p><strong>Использование:</strong> нарисовано на доспехе</p>\n<hr />\n<p>Эта руна изолирует от вредоносной энергии всех видов. Руноносец получает сопротивление 5 к одному из следующих типов урона по вашему выбору: огонь, холод или электричество, и любое существо, касающееся руноносца или наносящее урон с помощью безоружной атаки или атаки не-длинным оружием ближнего боя, получает 2d6 урона. Руна получает признак выбранного типа энергии и наносит урон этого типа.</p>\n<p>@UUID[Compendium.pf2e-playtest-data.impossible-playtest-effects.Item.aa9Ncmtrwm1EThms]</p>\n<p><strong>Воззвание:</strong> Любое существо, поглотившее, @UUID[Compendium.pf2e.conditionitems.Item.kWc1fhmv9LBiTuei]{Схватившее}, @UUID[Compendium.pf2e.conditionitems.Item.VcDeM8A5oI6VqhbM]{Сдерживающее} или проглотившее целиком руносноца, получает @Damage[(4 + 2*floor((@actor.level - 9) / 4))d6[untyped]] с @Check[reflex|against:class|basic]{Простым спасброском Рефлекса} против вашего КС класса. При провале спасброска, оно также высвобождает руноносца.</p>\n<hr />\n<p><strong>Уровень (+4):</strong> Сопротивление увеличивается на 5, а наносимый урон — на 1d6, или на 2d6 при использовании воззвания.</p>"
		},
		"Marssyl, Rune of Impact": {
			"name": "Марсиль, Руна сотрясения",
			"description": "<p><strong>Использование:</strong> нарисовано на оружии или безоружном \"Ударе\", наносящем дробящий урон</p>\n<hr />\n<p>Руна многократно увеличивает силу, которая проходит через её концентрические кольца. Оружие наносит 1 дробящего урона брызгами за каждую кость урона оружия. Если это оружие ближнего боя, руноносец иммунен к этому урону брызгами.</p>\n<p><strong>Воззвание:</strong> Оружие вибрирует, когда в нём концентрируется сила. Следующий успешный \"Удар\", нанесенный этим оружием до конца следующего хода его владельца, наносит дополнительную кость урона оружием, и цель должна совершить успешный @Check[fortitude|against:class]{Спасбросок Стойкости} против вашего КС класса, или будет отброшена на 10 футов по прямой назад, или на 20 футов при критическом провале.</p>\n<p>@UUID[Compendium.pf2e-playtest-data.impossible-playtest-effects.Item.cX8MV4n6mF7RmXTp]</p>"
		},
		"Oljinex, Rune of Cowards' Bane": {
			"name": "Олджинекс, Руна погибели трусов",
			"description": "<p><strong>Использование:</strong> нарисовано на щите</p>\n<hr />\n<p>Эта руна напоминает сломанную стрелу. Когда щит поднят, он также даёт руноносцу бонус состояния +1 к КБ против физических атак дальнего боя.</p>\n<p>@UUID[Compendium.pf2e-playtest-data.impossible-playtest-effects.Item.janzhnKlCAeVkYHk]</p>\n<p><strong>Воззвание:</strong> (@Trait[Visual]{визуальный}, @Trait[Illusion]{иллюзия}, @Trait[Mental]{ментальный}) Руна создаёт иллюзию в сознании всех существ, находящихся рядом с руноносцем, которая длится 1 раунд. Иллюзия представляет собой большую непроходимую стену, преграждающую все пути от руноносца. Существа, затронутые этим воззванием, не могут по своей воле отойти от руноносца в течение 1 раунда или пока не перестану верить в иллюзию, обычно используя действие @UUID[Compendium.pf2e.actionspf2e.Item.BlAOM2X92SI6HMtJ]{Искать} против вашего КС класса.</p>"
		},
		"Pluuna, Rune of Illumination": {
			"name": "Плуна, Руна свечения",
			"description": "<p><strong>Использование:</strong> нарисовано на существе или доспехе</p>\n<hr />\n<p>Хотя многие руны зачарованы на свечение, в этой простой руне основное внимание уделяется свету. Руна излучает яркий свет в 20-футовой эманации (и тусклый свет в радиусе 40 футов). Существа в эманации получают штраф предмета −1 к проверкам Скрытности.</p>\n<p>@UUID[Compendium.pf2e-playtest-data.impossible-playtest-effects.Item.tuGYsi4iaULsHsbf]</p>\n<p><strong>Воззвание:</strong> Каждое существо в свете должно совершить успешный @Check[fortitude|against:class]{Спасбросок Стойкости} против вашего КС класса или станет @UUID[Compendium.pf2e.conditionitems.Item.TkIyaNPgTZFBCCuh]{Ослеплено} на 1 раунд. Свет тускнеет, но руноносец продолжает излучать тусклый свет в 20-футовой эманации в течение 1 раунда.</p>"
		},
		"Ranshu, Rune of Thunder": {
			"name": "Раншу, Руна грома",
			"description": "<p><strong>Использование:</strong> нарисовано на существе или объекте</p>\n<hr />\n<p>Эта вертикальная руна часто вырезается на высоких башнях, чтобы притягивать молнии и защищать здания под ними. Если руноносец хотя бы раз в свой ход не предпринял действие @Trait[Move]{движения}, молния находит его в конце хода, нанося @Damage[(1d4 + (ceil(@actor.level/2)) - 1)[electricity]].</p>\n<p><strong>Воззвание:</strong> Предварительные разряды молнии сплетаются в мощный болт. Руноносец получает @Damage[(2*ceil(@actor.level / 2))d6[electricity]] с @Check[fortitude|basic|against:runesmith]{Простым спасброском Стойкости}.</p>\n<hr />\n<p><strong>Уровень (+2):</strong> Урон увеличивается на 1, а урон от воззвания — на 2d6.</p>"
		},
		"Rovan, Seal of the Dead Vault Rune": {
			"name": "Рован, Руна запечатывания Мёртвого Хранилища",
			"description": "<p><strong>Использование:</strong> нарисовано на существе</p>\n<hr />\n<p>Эта могучая, зазубренная руна — лишь одна из нескольких, удерживающих Уничтожителя в его тюрьме, глубоко в ядре Голариона. Руноносец получает штраф −20 футов к своей наземной Скорости и штраф −40 футов ко всем другим Скоростям, так как руна пытается связать существо. Если таким образом Скорость полёта существа снижается до 0, оно не может выполнять действия @UUID[Compendium.pf2e.actionspf2e.Item.cS9nfDRGD83bNU1p] или @UUID[Compendium.pf2e.actionspf2e.Item.qm7xptMSozAinnPS].</p>\n<p>@UUID[Compendium.pf2e-playtest-data.impossible-playtest-effects.Item.CJe2eWiKHOgv90j4]</p>\n<p><strong>Воззвание:</strong> (@Trait[Earth]{земля}, @Trait[Incapacitation]{недееспособность}) Земля в @Template[emanation|distance:10]{10-футовой эманации} вокруг руноносца навсегда становится @UUID[Compendium.pf2e.journals.JournalEntry.S55aqwWIzpQRFhcq.JournalEntryPage.z68vgV2XWhi1KYEP#mestnostь]{Сложной местностью}, и руноносец должен совершить спасбросок @Check[fortitude|against:runesmith|traits:earth,incapacitation]{Стойкости}, так как земля вокруг него пытается окружить и заключить его в тюрьму. После этого руноносец иммунен к вашим рунам <em>рован</em> на 24 часа.</p>\n<hr />\n<p><strong>Критический успех:</strong> Руноносец незатронут.</p>\n<p><strong>Успех:</strong> Руноносец становится @UUID[Compendium.pf2e.conditionitems.Item.xYTAsEpcJE1Ccni3]{Замедлен 1} на 1 раунд.</p>\n<p><strong>Провал:</strong> Руноносец становится @UUID[Compendium.pf2e.conditionitems.Item.xYTAsEpcJE1Ccni3]{Замедлен 2} на 1 раунд.</p>\n<p><strong>Критический провал:</strong> Руноносец становится @UUID[Compendium.pf2e.conditionitems.Item.xYTAsEpcJE1Ccni3]{Замедлен 2}, @UUID[Compendium.pf2e.conditionitems.Item.VcDeM8A5oI6VqhbM]{Сдерживаем} и получает @UUID[Compendium.pf2e.conditionitems.Item.XgEqL1kFApUbl5Z2]{Слепоту}, так как оказывается заперт в массивной, спрессованной сфере земли. Если руноносец не может выбраться из сферы в течение 3 раундов, он @UUID[Compendium.pf2e.conditionitems.Item.dTwPJuKgBQCMxixg]{Окаменевает}. В течение года вокруг сферы образуется небольшой холм, скрывая погребённого пленника. На вершине холма остается камень с изображением этой руны. @UUID[Compendium.pf2e.journals.JournalEntry.S55aqwWIzpQRFhcq.JournalEntryPage.E4Q7EiSG18sIvFwg]{Противодействие} камню освобождает пленника.</p>"
		},
		"Sun-, Diacritic Rune of Preservation": {
			"name": "Сун-, Диакритическая руна сохранения",
			"description": "<p><strong>Использование:</strong> нарисовано на руне</p>\n<hr />\n<p>Этот спиралевидный диакритический знак направляет магию руны наружу, а затем обратно в то же место, позволяя руне воссоздать себя. После воззвания к базовой руне, она автоматически перерисовывается на той же цели.</p>\n<hr />\n<p><strong>Особенность:</strong> Одновременно мы можете иметь только одну копию <em>диакретической руны Сун-</em>, и после воззвания к ней, вы не сможете \"Выгравировать\" или \"Начертить\" её в течение следующих 10 минут.</p>"
		},
		"Trolistri, Rune of Forlorn Sorrow": {
			"name": "Тролистри, Руна печали покинутых",
			"description": "<p><strong>Использование:</strong> выгравировано на доспехе или существе</p>\n<hr />\n<p>Эта руна призывает вспомнить об унылой природе эльфов, и о красоте, заключённой в ней. Хотя эта руна прекрасна, печалью лучше любоваться издалека, не допуская приближения. Враги в радиусе 20 футов от руноносца считают все клетки между ними и руноносцем @UUID[Compendium.pf2e.journals.JournalEntry.S55aqwWIzpQRFhcq.JournalEntryPage.z68vgV2XWhi1KYEP#mestnostь]{Сложной местностью}.</p>\n<p><strong>Воззвание:</strong> Печаль уничтожает способность к любому другому действию. Каждый враг в радиусе 20 футов от руноносца должен совершить успешный @Check[will|against:runesmith]{Спасбросок Воли} или будет @UUID[Compendium.pf2e.conditionitems.Item.xYTAsEpcJE1Ccni3]{Замедлен 1}, поскольку он тратит первое действие на рыдания (или @UUID[Compendium.pf2e.conditionitems.Item.xYTAsEpcJE1Ccni3]{Замедлен 2} при критическом провале). Независимо от результата, существо временно иммуно к этому воззванию на 1 час.</p>"
		},
		"Ur-, Diacritic Rune of Intensity": {
			"name": "Ур-, Диакритическая руна интенсивности",
			"description": "<p><strong>Использование:</strong> нарисовано на наносящей урон руне</p>\n<hr />\n<p>Этот диакритический знак подчёркивает основную руну более жирными линиями, чтобы придать больший вес её эффектам. Когда происходит воззвание к базовой руне, оно получает бонус состояния к урону, равный вашему модификатору Интеллекта.</p>\n<p>@UUID[Compendium.pf2e-playtest-data.impossible-playtest-effects.Item.MXgAIqOq9toR0qmc]</p>"
		},
		"Zohk, Rune of Homecoming": {
			"name": "Зок, Руна возвращения домой",
			"description": "<p><strong>Использование:</strong> нарисовано на существе</p>\n<hr />\n<p>Эта круглая метка призвана помочь путешественникам всегда находить дорогу домой. Руноносец получает бонус состояния +15 футов к своим Скоростям, но только если его движение закончилось бы ближе к вам, чем в начале его хода.</p>\n<p>@UUID[Compendium.pf2e-playtest-data.impossible-playtest-effects.Item.RE2etiUSVzVOfJOc]</p>\n<p><strong>Воззвание:</strong> (@Trait[Teleportation]{телепортация}) Вы призываете руноносца к себе. Вы телепортируете руноносца в любую свободную клетку рядом с вами. Несогласная цель может совершить @Check[will|against:runesmith]{Спасбросок Воли} чтобы не дать себя телепортировать.</p>"
		}
	}
}