{
	"label": "Классы",
	"mapping": {
		"name": {
			"path": "name",
			"converter": "itemNameConverter"
		},
		"description": "system.description.value",
		"items": {
			"path": "system.items",
			"converter": "carefulMerge"
		}
	},
	"entries": {
		"Necromancer": {
			"name": "Некромант",
			"description": "<p>Смерть — такое же обычное явление, как и жизнь, если не более. Несмотря на это, смерть и разложение считаются мрачными явлениями, а те, кто готов окунуться в вызываемое ими очарование известны как некроманты. Эти оккультные заклинатели ищут постоянно меняющиеся границы жизни и смерти, манипулируя энергиями — жизненностью и пустотой — в соответствии со своей волей. Нежить как служит им, так и трепещет перед ними. В то время как творения некроманта — всего лишь насмешка над жизнью, нежить охотно служит своему создателю.</p>",
			"items": {
				"JJysy": {
					"name": "Поглотить трэлла"
				},
				"F0dia": {
					"name": "Эпитафия"
				},
				"O1n73": {
					"name": "Эксперт некромантии"
				},
				"fhUOD": {
					"name": "Могильные заклинания"
				},
				"9ScoA": {
					"name": "Мрачное увлечение"
				},
				"iWiRD": {
					"name": "Мрачные обереги"
				},
				"K2hTI": {
					"name": "Неизбежное возвращение"
				},
				"7Irvr": {
					"name": "Легенда некромантии"
				},
				"AQLVn": {
					"name": "Мастер некромантии"
				},
				"wkr5z": {
					"name": "Мастерство над жизнью и смертью"
				},
				"7DlyH": {
					"name": "Колдовство некроманта"
				},
				"JBQCF": {
					"name": "Знания нежити"
				},
				"Fps2t": {
					"name": "Неумирающая стойкость"
				},
				"emIGo": {
					"name": "Неестественная стойкость"
				},
				"OVqwc": {
					"name": "Опыт с оружием"
				},
				"ghh9g": {
					"name": "Эксперт рефлекса"
				},
				"PaqfV": {
					"name": "Эксперт восприятия"
				},
				"aktIr": {
					"name": "Опыт с лёгкими доспехами"
				}
			}
		},
		"Runesmith": {
			"name": "Рунный кузнец",
			"description": "<p>В основе любого общения лежит слово, а в основе любой магии — руна. В равной степени учёный и художник, вы посвящаете себя изучению этих мистических символов, учитесь вырезать, вытравливать, клеймить и рисовать строительные блоки магии, чтобы направлять силы, превосходящие вас самих.</p>",
			"items": {
				"64wPo": {
					"name": "Уверенный создатель рун"
				},
				"aG43C": {
					"name": "Эксперт рун"
				},
				"hyL1h": {
					"name": "Великая руническая оптимизация"
				},
				"nyh7p": {
					"name": "Легендарные руны"
				},
				"daIUD": {
					"name": "Мастерство рун"
				},
				"Xgsi2": {
					"name": "Руны и их создание"
				},
				"hrmMD": {
					"name": "Создатель рун"
				},
				"pBQ9j": {
					"name": "Руническая оптимизация"
				},
				"90VQn": {
					"name": "Рунический репертуар"
				},
				"Q01no": {
					"name": "Выносливость кузнеца"
				},
				"sxE4V": {
					"name": "Опыт с оружием кузнеца"
				},
				"dXvLh": {
					"name": "Мастерство с оружием кузнеца"
				},
				"ClYq1": {
					"name": "Блок щитом"
				},
				"rrvcw": {
					"name": "Эксперт рефлекса"
				},
				"zZ6SJ": {
					"name": "Эксперт восприятия"
				}
			}
		}
	}
}