{
    "label": "Элементы PF2e Workbench",
    "mapping": {
        "name": {
            "path": "name",
            "converter": "itemNameConverter"
        },
        "description": "system.description.value",
        "rules": {
            "path": "system.rules",
            "converter": "carefulMerge"
        }
    },
    "folders": {
        "Adjustments": "Корректировки",
        "Adjustment Parts": "Детали корректировки",
        "Auras": "Ауры",
        "Effects": "Эффекты"
    },
    "entries": {
        "(Intelligent) Skeleton Adjustment": {
            "name": "(Intelligent) Skeleton Adjustment",
			"description": "<p>Most skeletons are mindless and follow either the basic instincts they had in life or orders given by their creator.</p>\n<ul>\n<li>Add the skeleton, mindless  and undead traits, and zombie traits.</li>\n<li>Increase the creature's HP based on its level.</li>\n<li>Add the following immunities: death effects, disease, mental, @UUID[Compendium.pf2e.conditionitems.Item.6uEgoh53GbXuHpTF], poison, @UUID[Compendium.pf2e.conditionitems.Item.fBnFDH2MTzgFijKf]. </li>\n<li>Add the following resistances, with a value based on its level: cold, electricity, fire, piercing, slashing.</li>\n<li>Add the following abilities.</li>\n<ul>\n<li>@Compendium[pf2e.bestiary-ability-glossary-srd.qCCLZhnp2HhP3Ex6]</li>\n<li>@Compendium[pf2e.bestiary-ability-glossary-srd.TTCw5NusiSSkJU1x]</li>\n</ul>\n</ul>"
        },
        "(Mindless) Skeleton Adjustment": {
            "name": "(Mindless) Skeleton Adjustment",
			"description": "<p>Most skeletons are mindless and follow either the basic instincts they had in life or orders given by their creator.</p>\n<ul>\n<li>Add the skeleton, mindless  and undead traits, and zombie traits. </li>\n<li>Increase the creature's HP based on its level.</li>\n<li>Add the following immunities: death effects, disease, mental, @UUID[Compendium.pf2e.conditionitems.Item.6uEgoh53GbXuHpTF], poison, @UUID[Compendium.pf2e.conditionitems.Item.fBnFDH2MTzgFijKf]. </li>\n<li>Add the following resistances, with a value based on its level: cold, electricity, fire, piercing, slashing.</li>\n<li>Add the following abilities.</li>\n<ul>\n<li>@Compendium[pf2e.bestiary-ability-glossary-srd.qCCLZhnp2HhP3Ex6]</li>\n<li>@Compendium[pf2e.bestiary-ability-glossary-srd.TTCw5NusiSSkJU1x]</li>\n</ul>\n</ul>"
        },
        "[Effect] Dirge Of Doom": {
            "name": "Эффект: Роковая панихида",
            "description": "<p>Существа под этим эффектом не могут снизить свое значение состояния @UUID[Compendium.pf2e.conditionitems.Item.TBSHQspnbcqxsmjL]{Напуган} ниже 1.</p>"
        },
        "Aura: Aura of Despair": {
            "name": "Аура: Отчаяния",
            "description": "<p>Эта аура даёт @UUID[Compendium.pf2e.feat-effects.Item.MNkIxAishE22TqL3], а также устанавливает минимальное значение @UUID[Compendium.pf2e.conditionitems.Item.TBSHQspnbcqxsmjL]{Напуган} на 1 для врагов.</p>"
        },
        "Aura: Bane": {
            "name": "Аура: Проклятье",
            "description": "<p>'Достаточно хорошая' аура для @UUID[Compendium.pf2e.spells-srd.Item.7ZinJNzxq0XF0oMx]{Проклятия} (технически не аура, но...)</p>\n<p>Этот эффект имеет ауру 10 футов, если вы увеличите размер, вам нужно будет отредактировать правило вручную.</p>"
        },
        "Aura: Courageous Anthem": {
            "name": "Аура: Гимн отваги",
            "description": "<p>'Достаточно хорошая' аура для @UUID[Compendium.pf2e.spells-srd.Item.IAjvwqgiDr3qGYxY] (технически не аура, но...)</p>\n<p>Сделано это как эффект 1 раунда, поддерживаемый. Повторно применяйте каждый раунд, используйте макрос Symon \"Lingering Heroics\" или эффект shift+щелчок для редактирования в нужной продолжительности (если у вас есть модуль Extempore Effects, который вам следует...).</p>"
        },
        "Aura: Dirge of Doom": {
            "name": "Аура: Роковая панихида",
            "description": "<p>'Достаточно хорошая' аура для @UUID[Compendium.pf2e.spells-srd.Item.1xLVcA8Y1onw7toT] (технически не аура, но...)</p>\n<p>Применяет @UUID[Compendium.xdy-pf2e-workbench.xdy-pf2e-workbench-items.Item.Er8NTtocbKcUpBAa]</p>"
        },
        "Aura: Inspire Courage": {
            "name": "Аура: Вдохновить на смелость",
            "description": "<p>'Достаточно хорошая' аура для @UUID[Compendium.pf2e.spells-srd.Item.IAjvwqgiDr3qGYxY] (технически не аура, но...)</p>\n<p>Сделано это как эффект 1 раунда, поддерживаемый. Повторно применяйте каждый раунд, используйте макрос Symon \"Lingering Heroics\" или эффект shift+щелчок для редактирования в нужной продолжительности (если у вас есть модуль Extempore Effects, который вам следует...).</p>"
        },
        "Aura: Inspire Defense": {
            "name": "Аура: Вдохновить на защиту",
            "description": "<p>'Достаточно хорошая' аура для @UUID[Compendium.pf2e.spells-srd.Item.bH0kPuf7UKxRvi2P] (технически не аура, но...)</p>\n<p>Сделано это как эффект 1 раунда, поддерживаемый. Повторно применяйте каждый раунд, используйте макрос Symon \"Lingering Heroics\" или эффект shift+щелчок для редактирования в нужной продолжительности (если у вас есть модуль Extempore Effects, который вам следует...).</p>"
        },
        "Aura: Rallying Anthem": {
            "name": "Аура: Гимн сплочения",
            "description": "<p>'Достаточно хорошая' аура для @UUID[Compendium.pf2e.spells-srd.Item.bH0kPuf7UKxRvi2P] (технически не аура, но...)</p>\n<p>Сделано это как эффект 1 раунда, поддерживаемый. Повторно применяйте каждый раунд, используйте макрос Symon \"Lingering Heroics\" или эффект shift+щелчок для редактирования в нужной продолжительности (если у вас есть модуль Extempore Effects, который вам следует...).</p>"
        },
        "Effect: Change Focus Point Maximum": {
            "name": "Эффект: Изменение максимума очков фокусировки",
            "description": "<p>Добавьте это ко всем персонажам, у которых должно быть максимальное количество очков фокусировки отличное от 3, а затем измените счетчик на требуемое значение.</p>"
        },
        "Effect: Minimum Frightened": {
            "name": "Эффект: Минимум напуган",
            "description": "<p>Существа с этим эффектом не могут снизить значение @UUID[Compendium.pf2e.conditionitems.Item.TBSHQspnbcqxsmjL] ниже значения этого эффекта.</p>\n<p><strong>Не</strong> дает состояние @Condition[Frightened]{напуган}.</em>.</p>"
        },
        "Ghost Adjustment": {
            "name": "Ghost Adjustment",
			"description": "<p>The ephemeral form of a ghostly creature lets it pass through solid objects and float in the air. For simplicity, a creature with these adjustments isn't truly incorporeal, nor does it necessarily return after being destroyed.</p>\n<ul>\n<li>Add the ghost, spirit, and undead traits.<br />Add the Necril language.</li>\n<li>Add the following immunities: death effects, disease, mental, @UUID[Compendium.pf2e.conditionitems.Item.6uEgoh53GbXuHpTF], poison, @UUID[Compendium.pf2e.conditionitems.Item.fBnFDH2MTzgFijKf].</li>\n<li>Add the following weaknesses, with a value based on the creature's level: force, ghost touch, positive.</li>\n<li style=\"font-weight:bold\"><strong>MANUALLY: If the creature can't fly, change its highest Speed to a fly Speed. Remove all other Speeds.</strong></li>\n<li style=\"font-weight:bold\"><strong>The damage of the creature's physical Strikes changes to negative damage, and those Strikes are magical.</strong></li>\n<li>Add the following abilities.</li>\n<ul>\n<li>@Compendium[pf2e.bestiary-ability-glossary-srd.qCCLZhnp2HhP3Ex6]</li>\n<li>@Compendium[pf2e.bestiary-ability-glossary-srd.TTCw5NusiSSkJU1x]</li>\n<li>@UUID[Compendium.xdy-pf2e-workbench.xdy-pf2e-workbench-items.Item.k5rbou3lvJOavjdU]{Ghostly Passage}</li>\n</ul>\n</ul>"
        },
        "Ghostly Passage": {
            "name": "Ghostly Passage",
            "description": "<p>The creature Flies and, during this movement, can pass through walls, creatures, and other material obstacles as though incorporeal. It must begin and end its movement outside of any physical obstacles, and passing through solid material is difficult terrain.</p>"
        },
        "Ghoul Adjustment": {
            "name": "Ghoul Adjustment",
			"description": "<p>Ghoul creatures are typically hairless and gaunt with blue or purple skin and pointed ears.</p>\n<ul>\n<li>Add the ghoul and undead traits.</li>\n<li>Add the following immunities: death effects, disease, @UUID[Compendium.pf2e.conditionitems.Item.6uEgoh53GbXuHpTF], poison, @UUID[Compendium.pf2e.conditionitems.Item.fBnFDH2MTzgFijKf].</li>\n<li>Decrease all saving throw modifiers by 1.</li>\n<li style=\"font-weight:bold\"><strong>MANUALLY Add the paralysis ability to the creature's jaws, fangs, or similar <a href=\"https://2e.aonprd.com/Traits.aspx?ID=199\">unarmed</a> attack. If the creature doesn't have one, add one with the same attack and damage as its strongest melee attack.</strong></li>\n<li>Add the following abilities.</li>\n<ul>\n<li>@Compendium[pf2e.bestiary-ability-glossary-srd.qCCLZhnp2HhP3Ex6]</li>\n<li>@Compendium[pf2e.bestiary-ability-glossary-srd.TTCw5NusiSSkJU1x]</li>\n<li>@UUID[Compendium.pf2e.bestiary-family-ability-glossary.Item.FW4KAUHb7r8WkxUc]{(Ghoul) Paralysis}</li>\n<li>@UUID[Compendium.pf2e.bestiary-family-ability-glossary.Item.UU1Fp3PRuTFONjC9]{(Ghoul) Swift Leap}</li>\n</ul>\n</ul>"
        },
        "Lesser Despair": {
            "name": "Lesser Despair",
            "description": "<p>30 feet. Living creatures of the mummy creature's level or lower are frightened 1 while in its despair aura. They can't naturally recover from this fear while in the area but recover instantly once they leave.</p>"
        },
        "Mummy Adjustment": {
            "name": "Mummy Adjustment",
			"description": "<p>All types of creatures can have their corpses preserved and rise as mummies.</p>\n<ul>\n<li>Add the mummy and undead traits.</li>\n<li>Add the Necril language.</li>\n<li>Add the following immunities: death effects, disease, @UUID[Compendium.pf2e.conditionitems.Item.6uEgoh53GbXuHpTF], poison, @UUID[Compendium.pf2e.conditionitems.Item.fBnFDH2MTzgFijKf].</li>\n<li>Add weakness to fire, with a value depending on the creature's level.</li>\n<li>Add the following abilities.</li>\n<ul>\n<li>@Compendium[pf2e.bestiary-ability-glossary-srd.qCCLZhnp2HhP3Ex6]</li>\n<li>@Compendium[pf2e.bestiary-ability-glossary-srd.TTCw5NusiSSkJU1x]</li>\n<li>@UUID[Compendium.xdy-pf2e-workbench.xdy-pf2e-workbench-items.Item.E4PkAKqJYCyHrY3U]{Lesser Despair}</li>\n</ul>\n</ul>"
        },
        "Shadow Adjustment": {
            "name": "Shadow Adjustment",
			"description": "<p>All types of creatures can have their corpses preserved and rise as shadow.</p>\n<ul>\n<li>Add the undead traits.</li>\n<li>Add the Necril language.</li>\n<li style=\"font-weight:bold\"><strong>MANUALLY Add Stealth with a modifier equal to its highest skill modifier.</strong></li>\n<li>Add the following immunities: death effects, disease, @UUID[Compendium.pf2e.conditionitems.Item.6uEgoh53GbXuHpTF], poison, precision @UUID[Compendium.pf2e.conditionitems.Item.fBnFDH2MTzgFijKf].</li>\n<li>\n<p>Add the following weaknesses, with a value based on the creature's level: force, ghost touch, positive.</p>\n</li>\n<li>\n<p><strong>MANUALLY If the creature can't fly, change its highest Speed to a fly Speed. Remove all other Speeds.</strong></p>\n</li>\n<li>\n<p><strong>MANUALLY: The damage of the creature's physical Strikes changes to negative damage, and those Strikes are magical.</strong></p>\n</li>\n<li>\n<p><strong>MANUALLY Add darkness as an innate divine spell usable once per day.</strong></p>\n</li>\n<li style=\"font-weight:bold\">Add the following abilities.</li>\n<ul>\n<li>@Compendium[pf2e.bestiary-ability-glossary-srd.qCCLZhnp2HhP3Ex6]</li>\n<li>@Compendium[pf2e.bestiary-ability-glossary-srd.TTCw5NusiSSkJU1x]</li>\n<li>@UUID[Compendium.xdy-pf2e-workbench.xdy-pf2e-workbench-items.Item.jsMqvMOtWuaUdDBb]{Slink in Shadows}</li>\n</ul>\n</ul>"
        },
        "Slink in Shadows": {
            "name": "Скольжение в тенях",
            "description": "<p>Тень может @UUID[Compendium.pf2e.actionspf2e.Item.XMcnh4cSI32tljXa]{Спрятаться} или заканчивать @UUID[Compendium.pf2e.actionspf2e.Item.VMozDqMMuK5kpoX4]{Красться} в тени существа или объекта.</p>"
        },
        "Vampire Adjustment": {
            "name": "Vampire Adjustment",
			"description": "<p>A vampiric creature consumes the blood of the living for sustenance. It might also possess the compulsions and revulsions of a specific vampire bloodline.</p>\n<ul>\n<li>Add the undead and vampire traits.</li>\n<li>Add the Necril language.</li>\n<li>Decrease the creature's HP based on its level.</li>\n<li>Add the following immunities: death effects, disease, sleep, @UUID[Compendium.pf2e.conditionitems.Item.6uEgoh53GbXuHpTF], poison, @UUID[Compendium.pf2e.conditionitems.Item.fBnFDH2MTzgFijKf]. </li>\n<li>Add resistance to physical damage, with a value based on the creature's level. <strong>MANUALLY Choose one type of material that bypasses this resistance: cold iron (vetalarana), silver (moroi), or wood (jiang-shi or nosferatu).</strong></li>\n<li style=\"font-weight:bold\"><strong>MANUALLY Add a fangs Strike. It deals damage equal to the creature's lowest melee Strike and can be used to Feed. If the creature already has a jaws or fangs Strike, just add the Feed ability.</strong></li>\n<li>Add the following abilities.</li>\n<ul>\n<li>@Compendium[pf2e.bestiary-ability-glossary-srd.qCCLZhnp2HhP3Ex6]</li>\n<li>@Compendium[pf2e.bestiary-ability-glossary-srd.TTCw5NusiSSkJU1x]</li>\n<li style=\"font-weight:bold\"><strong>Manually add: Feed [one-action] (divine, necromancy) Requirements The vampiric creature's most recent action was a successful jaws Strike that dealt damage; Effect The vampiric creature drains blood from its victim, dealing minimum jaws damage and regaining HP based on its level.</strong></li>\n</ul>\n</ul>"
        },
        "Zombie Adjustment": {
            "name": "Zombie Adjustment",
			"description": "<p>A zombified creature is a mindless, rotting corpse that attacks everything it perceives.</p>\n<ul>\n<li>Add the mindless, undead, and zombie traits.</li>\n<li>Increase the creature's HP based on its level.</li>\n<li>Add the following immunities: death effects, disease, mental, @UUID[Compendium.pf2e.conditionitems.Item.6uEgoh53GbXuHpTF], poison, @UUID[Compendium.pf2e.conditionitems.Item.fBnFDH2MTzgFijKf].</li>\n<li>Add the following weaknesses, with a value based on its level: positive, slashing.</li>\n<li>Add the following abilities.</li>\n<ul>\n<li>@Compendium[pf2e.bestiary-ability-glossary-srd.qCCLZhnp2HhP3Ex6]</li>\n<li>@Compendium[pf2e.bestiary-ability-glossary-srd.TTCw5NusiSSkJU1x]</li>\n<li>Slow A zombie is permanently @Compendium[pf2e.conditionitems.Slowed]{Slowed 1} and can't use reactions.</li>\n</ul>\n</ul>"
        }
    }
}